sandbox exponential smoothing
…
quarterly_sales

# A tibble: 24 × 4
    Year Quarter Period Sales
   <dbl>   <dbl>  <dbl> <dbl>
 1    90       1      1   362
 2    90       2      2   385
 3    90       3      3   432
 4    90       4      4   341
 5    91       1      5   382
 6    91       2      6   409
 7    91       3      7   498
 8    91       4      8   387
 9    92       1      9   473
10    92       2     10   513
# ℹ 14 more rows
…
Convert the quarterly data to a tsibble

quarterly_sales_ts_simple <- quarterly_sales |>
  select(Sales, Period) |> 
  ts(start = c(1990, 1), frequency = 4) |> 
  as_tsibble()

quarterly_sales_ts_simple

# A tsibble: 48 x 3 [1Q]
# Key:       key [2]
     index key   value
     <qtr> <chr> <dbl>
 1 1990 Q1 Sales   362
 2 1990 Q2 Sales   385
 3 1990 Q3 Sales   432
 4 1990 Q4 Sales   341
 5 1991 Q1 Sales   382
 6 1991 Q2 Sales   409
 7 1991 Q3 Sales   498
 8 1991 Q4 Sales   387
 9 1992 Q1 Sales   473
10 1992 Q2 Sales   513
# ℹ 38 more rows
…
tbl3 <- tibble(
  mth = rep(yearmonth("2010 Jan") + 0:8, each = 3),
  xyz = rep(c("x", "y", "z"), each = 9),
  abc = rep(letters[1:3], times = 9),
  value = rnorm(27)
)
as_tsibble(tbl3, key = c(xyz, abc))

Using `mth` as index variable.

# A tsibble: 27 x 4 [1M]
# Key:       xyz, abc [9]
        mth xyz   abc    value
      <mth> <chr> <chr>  <dbl>
 1 2010 Jan x     a      1.31 
 2 2010 Feb x     a      0.995
 3 2010 Mar x     a      1.38 
 4 2010 Jan x     b      0.127
 5 2010 Feb x     b     -0.308
 6 2010 Mar x     b      1.07 
 7 2010 Jan x     c     -0.627
 8 2010 Feb x     c      0.407
 9 2010 Mar x     c      1.02 
10 2010 Apr y     a     -0.231
# ℹ 17 more rows

Use the ETS function from fpp3

quarterly_sales

# A tibble: 24 × 4
    Year Quarter Period Sales
   <dbl>   <dbl>  <dbl> <dbl>
 1    90       1      1   362
 2    90       2      2   385
 3    90       3      3   432
 4    90       4      4   341
 5    91       1      5   382
 6    91       2      6   409
 7    91       3      7   498
 8    91       4      8   387
 9    92       1      9   473
10    92       2     10   513
# ℹ 14 more rows
…
df_tsibble

# A tsibble: 24 x 2 [1Q]
   YearQuarter Sales
         <qtr> <dbl>
 1     1990 Q1   362
 2     1990 Q2   385
 3     1990 Q3   432
 4     1990 Q4   341
 5     1991 Q1   382
 6     1991 Q2   409
 7     1991 Q3   498
 8     1991 Q4   387
 9     1992 Q1   473
10     1992 Q2   513
# ℹ 14 more rows
…
